{
  "title": "SIAS360 Information hub",
  "url": "https://sias360.preflet.com/",
  "logo": {
    "light": "/images/sias360.png",
    "dark": "/images/sias360.png"
  },
  "gitlab": "sias360/doc",
  "twitter": "preflets"
}